{
	"info": {
		"_postman_id": "2287600f-38b5-4954-83c8-703c7d79fcba",
		"name": "Wallet local demo",
		"schema": "https://schema.getpostman.com/json/collection/v2.1.0/collection.json",
		"_exporter_id": "5079111"
	},
	"item": [
		{
			"name": "User",
			"item": [
				{
					"name": "Create user",
					"event": [
						{
							"listen": "test",
							"script": {
								"exec": [
									"var responseBody = pm.response.json();",
									"",
									"var token = responseBody.token;",
									"",
									"pm.environment.set(\"token\", token);",
									""
								],
								"type": "text/javascript"
							}
						}
					],
					"request": {
						"auth": {
							"type": "noauth"
						},
						"method": "POST",
						"header": [],
						"body": {
							"mode": "raw",
							"raw": "{\n    \"email\":\"email2@user.com\",\n    \"password\":\"MyPass1!\",\n    \"confirm_password\":\"MyPass1!\"\n}",
							"options": {
								"raw": {
									"language": "json"
								}
							}
						},
						"url": {
							"raw": "http://localhost:9000/user",
							"protocol": "http",
							"host": [
								"localhost"
							],
							"port": "9000",
							"path": [
								"user"
							]
						}
					},
					"response": []
				},
				{
					"name": "Login User",
					"event": [
						{
							"listen": "test",
							"script": {
								"exec": [
									"var responseBody = pm.response.json();",
									"",
									"var token = responseBody.token;",
									"",
									"pm.environment.set(\"token\", token);",
									""
								],
								"type": "text/javascript"
							}
						}
					],
					"request": {
						"method": "POST",
						"header": [],
						"body": {
							"mode": "raw",
							"raw": "{\n    \"email\":\"email@user.com\",\n    \"password\":\"MyPass1!\"\n}",
							"options": {
								"raw": {
									"language": "json"
								}
							}
						},
						"url": {
							"raw": "http://localhost:9000/auth/login",
							"protocol": "http",
							"host": [
								"localhost"
							],
							"port": "9000",
							"path": [
								"auth",
								"login"
							]
						}
					},
					"response": []
				},
				{
					"name": "Bet",
					"request": {
						"auth": {
							"type": "bearer",
							"bearer": [
								{
									"key": "token",
									"value": "{{token}}",
									"type": "string"
								}
							]
						},
						"method": "POST",
						"header": [],
						"body": {
							"mode": "raw",
							"raw": "{\n    \"amount\":\"100\",\n    \"transaction_id\":\"33nf049\",\n    \"player_id\":\"39ifn03fm\"\n}",
							"options": {
								"raw": {
									"language": "json"
								}
							}
						},
						"url": {
							"raw": "http://localhost:9000/transaction/bet",
							"protocol": "http",
							"host": [
								"localhost"
							],
							"port": "9000",
							"path": [
								"transaction",
								"bet"
							]
						}
					},
					"response": []
				},
				{
					"name": "Deposit",
					"request": {
						"auth": {
							"type": "bearer",
							"bearer": [
								{
									"key": "token",
									"value": "{{token}}",
									"type": "string"
								}
							]
						},
						"method": "POST",
						"header": [],
						"body": {
							"mode": "raw",
							"raw": "{\n    \n}",
							"options": {
								"raw": {
									"language": "json"
								}
							}
						},
						"url": {
							"raw": "http://localhost:9000/transaction/deposit",
							"protocol": "http",
							"host": [
								"localhost"
							],
							"port": "9000",
							"path": [
								"transaction",
								"deposit"
							]
						}
					},
					"response": []
				},
				{
					"name": "Get balance",
					"request": {
						"auth": {
							"type": "bearer",
							"bearer": [
								{
									"key": "token",
									"value": "{{token}}",
									"type": "string"
								}
							]
						},
						"method": "GET",
						"header": [],
						"url": {
							"raw": "http://localhost:9000/user/balance",
							"protocol": "http",
							"host": [
								"localhost"
							],
							"port": "9000",
							"path": [
								"user",
								"balance"
							]
						}
					},
					"response": []
				},
				{
					"name": "Withdraw",
					"request": {
						"auth": {
							"type": "bearer",
							"bearer": [
								{
									"key": "token",
									"value": "{{token}}",
									"type": "string"
								}
							]
						},
						"method": "POST",
						"header": [],
						"body": {
							"mode": "raw",
							"raw": "{\n    \"amount\":\"100\",\n    \"transaction_id\":\"33nf049\",\n    \"player_id\":\"39ifn03fm\"\n}",
							"options": {
								"raw": {
									"language": "json"
								}
							}
						},
						"url": {
							"raw": "http://localhost:9000/transaction/withdraw",
							"protocol": "http",
							"host": [
								"localhost"
							],
							"port": "9000",
							"path": [
								"transaction",
								"withdraw"
							]
						}
					},
					"response": []
				},
				{
					"name": "Search tx User",
					"request": {
						"auth": {
							"type": "bearer",
							"bearer": [
								{
									"key": "token",
									"value": "{{token}}",
									"type": "string"
								}
							]
						},
						"method": "GET",
						"header": [],
						"url": {
							"raw": "http://localhost:9000/transaction/search?user_id=2&TransactionType=BET&WalletType=CASH",
							"protocol": "http",
							"host": [
								"localhost"
							],
							"port": "9000",
							"path": [
								"transaction",
								"search"
							],
							"query": [
								{
									"key": "user_id",
									"value": "2"
								},
								{
									"key": "TransactionType",
									"value": "BET"
								},
								{
									"key": "WalletType",
									"value": "CASH"
								}
							]
						}
					},
					"response": []
				}
			]
		},
		{
			"name": "Admin",
			"item": [
				{
					"name": "Login Admin",
					"event": [
						{
							"listen": "test",
							"script": {
								"exec": [
									"var responseBody = pm.response.json();",
									"",
									"var token = responseBody.token;",
									"",
									"pm.environment.set(\"token\", token);",
									""
								],
								"type": "text/javascript"
							}
						}
					],
					"request": {
						"method": "POST",
						"header": [],
						"body": {
							"mode": "raw",
							"raw": "{\n    \"email\":\"admin@test.com\",\n    \"password\":\"mYpAssw0rd123!\"\n}",
							"options": {
								"raw": {
									"language": "json"
								}
							}
						},
						"url": {
							"raw": "http://localhost:9000/auth/login",
							"protocol": "http",
							"host": [
								"localhost"
							],
							"port": "9000",
							"path": [
								"auth",
								"login"
							]
						}
					},
					"response": []
				},
				{
					"name": "Win",
					"request": {
						"auth": {
							"type": "bearer",
							"bearer": [
								{
									"key": "token",
									"value": "{{token}}",
									"type": "string"
								}
							]
						},
						"method": "POST",
						"header": [],
						"body": {
							"mode": "raw",
							"raw": "{\n    \"amount\":\"100\",\n    \"transaction_id\":\"33nf049\",\n    \"player_id\":\"39ifn03fm\"\n}",
							"options": {
								"raw": {
									"language": "json"
								}
							}
						},
						"url": {
							"raw": "http://localhost:9000/transaction/bet",
							"protocol": "http",
							"host": [
								"localhost"
							],
							"port": "9000",
							"path": [
								"transaction",
								"bet"
							]
						}
					},
					"response": []
				},
				{
					"name": "Search tx Admin",
					"protocolProfileBehavior": {
						"disableBodyPruning": true
					},
					"request": {
						"auth": {
							"type": "bearer",
							"bearer": [
								{
									"key": "token",
									"value": "{{token}}",
									"type": "string"
								}
							]
						},
						"method": "GET",
						"header": [],
						"body": {
							"mode": "raw",
							"raw": "",
							"options": {
								"raw": {
									"language": "json"
								}
							}
						},
						"url": {
							"raw": "http://localhost:9000/admin/transaction/search?user_id=4&TransactionType=BET&WalletType=CASH&note=Player",
							"protocol": "http",
							"host": [
								"localhost"
							],
							"port": "9000",
							"path": [
								"admin",
								"transaction",
								"search"
							],
							"query": [
								{
									"key": "user_id",
									"value": "4"
								},
								{
									"key": "TransactionType",
									"value": "BET"
								},
								{
									"key": "WalletType",
									"value": "CASH"
								},
								{
									"key": "note",
									"value": "Player"
								}
							]
						}
					},
					"response": []
				}
			]
		}
	]
}